^F:\УЧЕБА 6 СЕМЕСТР\ПАРАЛЛЕЛЬНОЕ ПРОГРАММИРОВАНИЕ (ПП)\ЛАБОРАТОРНЫЕ РАБОТЫ\LAB1_PARPROGR\LAB1_PARPROGR\DEBUG\LAB1_PARPROGR.OBJ|F:\УЧЕБА 6 СЕМЕСТР\ПАРАЛЛЕЛЬНОЕ ПРОГРАММИРОВАНИЕ (ПП)\ЛАБОРАТОРНЫЕ РАБОТЫ\LAB1_PARPROGR\LAB1_PARPROGR\DEBUG\STDAFX.OBJ
/OUT:"F:\УЧЕБА 6 СЕМЕСТР\ПАРАЛЛЕЛЬНОЕ ПРОГРАММИРОВАНИЕ (ПП)\ЛАБОРАТОРНЫЕ РАБОТЫ\LAB1_PARPROGR\DEBUG\LAB1_PARPROGR.EXE" /INCREMENTAL /NOLOGO MPICH.LIB KERNEL32.LIB USER32.LIB GDI32.LIB WINSPOOL.LIB COMDLG32.LIB ADVAPI32.LIB SHELL32.LIB OLE32.LIB OLEAUT32.LIB UUID.LIB ODBC32.LIB ODBCCP32.LIB /MANIFEST /MANIFESTUAC:"level='asInvoker' uiAccess='false'" /manifest:embed /DEBUG:FASTLINK /PDB:"F:\УЧЕБА 6 СЕМЕСТР\ПАРАЛЛЕЛЬНОЕ ПРОГРАММИРОВАНИЕ (ПП)\ЛАБОРАТОРНЫЕ РАБОТЫ\LAB1_PARPROGR\DEBUG\LAB1_PARPROGR.PDB" /SUBSYSTEM:CONSOLE /TLBID:1 /DYNAMICBASE /NXCOMPAT /IMPLIB:"F:\УЧЕБА 6 СЕМЕСТР\ПАРАЛЛЕЛЬНОЕ ПРОГРАММИРОВАНИЕ (ПП)\ЛАБОРАТОРНЫЕ РАБОТЫ\LAB1_PARPROGR\DEBUG\LAB1_PARPROGR.LIB" /MACHINE:X86 DEBUG\LAB1_PARPROGR.OBJDEBUG\STDAFX.OBJ
^C:\USERS\DINA\DESKTOP\LAB1_PARPROGR\LAB1_PARPROGR\DEBUG\LAB1_PARPROGR.OBJ|C:\USERS\DINA\DESKTOP\LAB1_PARPROGR\LAB1_PARPROGR\DEBUG\STDAFX.OBJ
/OUT:"C:\USERS\DINA\DESKTOP\LAB1_PARPROGR\DEBUG\LAB1_PARPROGR.EXE" /INCREMENTAL /NOLOGO MPICH.LIB KERNEL32.LIB USER32.LIB GDI32.LIB WINSPOOL.LIB COMDLG32.LIB ADVAPI32.LIB SHELL32.LIB OLE32.LIB OLEAUT32.LIB UUID.LIB ODBC32.LIB ODBCCP32.LIB /MANIFEST /MANIFESTUAC:"level='asInvoker' uiAccess='false'" /manifest:embed /DEBUG:FASTLINK /PDB:"C:\USERS\DINA\DESKTOP\LAB1_PARPROGR\DEBUG\LAB1_PARPROGR.PDB" /SUBSYSTEM:CONSOLE /TLBID:1 /DYNAMICBASE /NXCOMPAT /IMPLIB:"C:\USERS\DINA\DESKTOP\LAB1_PARPROGR\DEBUG\LAB1_PARPROGR.LIB" /MACHINE:X86 DEBUG\LAB1_PARPROGR.OBJDEBUG\STDAFX.OBJ
^C:\USERS\DINA\DESKTOP\LAB5_PARPROGR\LAB1_PARPROGR\DEBUG\LAB1_PARPROGR.OBJ|C:\USERS\DINA\DESKTOP\LAB5_PARPROGR\LAB1_PARPROGR\DEBUG\STDAFX.OBJ
/OUT:"C:\USERS\DINA\DESKTOP\LAB5_PARPROGR\DEBUG\LAB1_PARPROGR.EXE" /INCREMENTAL /NOLOGO MPICH.LIB KERNEL32.LIB USER32.LIB GDI32.LIB WINSPOOL.LIB COMDLG32.LIB ADVAPI32.LIB SHELL32.LIB OLE32.LIB OLEAUT32.LIB UUID.LIB ODBC32.LIB ODBCCP32.LIB /MANIFEST /MANIFESTUAC:"level='asInvoker' uiAccess='false'" /manifest:embed /DEBUG:FASTLINK /PDB:"C:\USERS\DINA\DESKTOP\LAB5_PARPROGR\DEBUG\LAB1_PARPROGR.PDB" /SUBSYSTEM:CONSOLE /TLBID:1 /DYNAMICBASE /NXCOMPAT /IMPLIB:"C:\USERS\DINA\DESKTOP\LAB5_PARPROGR\DEBUG\LAB1_PARPROGR.LIB" /MACHINE:X86 DEBUG\LAB1_PARPROGR.OBJDEBUG\STDAFX.OBJ
